﻿GTN,LONG,LAT,COUNTRY,U
unit,,,,mg/kg
DL,,,,0.10
N24E14C1,23.82611194,35.49645002,GR,1.88
N24E15C2,24.67156107,35.40422557,GR,1.25
N24E15C4,25.28311772,35.04313264,GR,1.3
N24E15C5,25.1958701,35.26970743,GR,2.29
N24E16C3,26.09912576,35.18618728,GR,1.42
N25E08C1,13.75,37.48,IT,1.52
N25E09C1,14.7,37.31,IT,1.82
N25E13C1,22.43937043,37.10588415,GR,2.66
N25E13C2,21.78721231,37.40444275,GR,0.75
N25E13C4,21.95448195,37.22270245,GR,2.12
N25W02C3,-2.52228757,37.28825683,ES,2.33
N25W03C1,-3.51100563,37.42023846,ES,0.5
N25W03C3,-4.44833781,37.12418913,ES,0.59
N25W03C4,-4.24452975,36.94323178,ES,0.68
N25W04C2,-6.56961085,37.28592841,ES,1.67
N25W04C3,-5.44898543,37.05571976,ES,1.89
N25W04C5,-5.81055467,36.52403622,ES,1.26
N26E08C1,13.54,37.78,IT,1.95
N26E09C1,15.13,37.93,IT,1.81
N26E09C2,15.91,38.32,IT,2.61
N26E10C1,16.49,38.94,IT,1.89
N26E12C1,21.27139162,38.72096456,GR,2.91
N26E12C3,21.16268419,37.85910861,GR,1.49
N26E12C4,20.62279954,38.17358894,GR,3.88
N26E13C1,22.41843109,38.9294531,GR,0.64
N26E13C2,21.7449155,38.55509142,GR,2.61
N26E13C3,22.03524903,38.09922763,GR,1.45
N26E13C4,21.56402867,37.70220657,GR,1.12
N26E13C5,22.70298787,37.6402995,GR,1.08
N26E13C6,22.63139413,37.8232579,GR,1
N26E13C7,22.45251793,38.65534749,GR,1.81
N26E14C1,24.10067138,38.53766163,GR,1.22
N26E14C2,23.4668196,38.79679502,GR,0.47
N26E14C3,23.53655015,38.12429589,GR,3.18
N26E14C4,23.99465626,37.68077855,GR,1.12
N26E14C5,23.70933098,38.28455211,GR,1.52
N26W01C2,-0.63963089,38.6768494,ES,1.4
N26W02C1,-2.86013266,38.69341017,ES,1.28
N26W02C2,-2.42319846,38.52920449,ES,1.66
N26W03C1,-4.56003121,38.78839652,ES,2.06
N26W03C5,-3.5489207,37.6858238,ES,1.1
N26W04C2,-5.72624521,38.71946662,ES,2.11
N26W05C1,-8.315643895,37.94918618,PT,1.47
N26W05C2,-8.620198796,37.63794641,PT,3.53
N26W05C3,-7.555994764,38.342502,PT,4.23
N26W05C4,-8.287782674,38.49019909,PT,2.86
N26W05C5,-7.978080459,38.87169023,PT,1.4
N27E09C1,15.61,40.27,IT,2.19
N27E10C1,17.17,40.58,IT,1.96
N27E10C2,16.71,39.47,IT,5.17
N27E12C1,21.61496943,39.9582416,GR,0.55
N27E12C2,20.76294376,40.05709315,GR,2.95
N27E12C3,21.05381224,39.3655723,GR,1.77
N27E12C4,21.42446161,39.16243405,GR,2.3
N27E12C5,20.53114992,39.69910589,GR,2.5
N27E13C1,22.57874774,39.91204007,GR,2.04
N27E13C2,22.38724625,40.16750892,GR,2.48
N27E13C3,21.77630711,39.34498597,GR,1.51
N27E13C4,22.72606553,39.69252043,GR,0.38
N27E13C5,22.10720291,40.26617689,GR,3.08
N27W01C2,-0.91015392,40.43837479,ES,2.94
N27W01C3,-1.72554755,40.15936139,ES,3.71
N27W01C5,-0.42671883,38.89977296,ES,1.09
N27W02C1,-2.55904235,39.01319363,ES,1.52
N27W02C2,-2.7831677,39.73848663,ES,1.27
N27W02C4,-2.96741748,40.45040899,ES,0.85
N27W02C5,-2.19056217,40.24431278,ES,1.87
N27W03C1,-4.78290665,40.42118674,ES,3.41
N27W03C2,-4.01252075,40.6053575,ES,4.19
N27W03C3,-5.09895616,40.25986007,ES,0.93
N27W03C4,-5.32434,39.437077,ES,3.22
N27W03C5,-4.48398081,39.40954107,ES,3.83
N27W04C3,-6.16700188,39.13469566,ES,3.4
N27W04C4,-6.752268489,39.32323245,ES,3.18
N27W05C1,-7.738700473,39.02831109,PT,3.95
N27W05C2,-8.561961938,39.10654496,PT,1.32
N27W05C3,-8.618810017,39.88539813,PT,1.66
N27W05C4,-7.960271869,40.49867634,PT,23.8
N27W05C5,-7.578253547,40.11699978,PT,3.37
N28E01C2,0.116181949,41.77524937,ES,3.19
N28E01C3,0.060490111,40.8564466,ES,1.73
N28E01C4,0.746356119,41.07265432,ES,1.61
N28E01C5,1.043910216,41.39723365,ES,1.06
N28E05C1,9,41.88,FR,3.15
N28E08C1,14.18,41.56,IT,9.64
N28E08C2,13.86,41.78,IT,2.6
N28E08C3,13.86,41.23,IT,9.86
N28E08C4,14.4,41.12,IT,6.41
N28E08C5,13.66,41.7,IT,1.87
N28E09C1,15.76,41.38,IT,1.71
N28E09C2,14.97,41.49,IT,2.11
N28E09C3,15.52,40.7,IT,2.26
N28E09C4,16.15,40.71,IT,1.42
N28E09C5,16.36,40.71,IT,1.76
N28E10C1,17.81,40.59,IT,1.94
N28E11C4,20.18,40.916,AL,3.21
N28E11C5,19.721,40.78,AL,1.41
N28E12C4,21.90308303,40.94731404,GR,3.27
N28E13C3,22.45382054,40.95374041,GR,1.65
N28E13C4,23.62886126,41.10687737,GR,3.98
N28E13C5,23.05112301,41.07507174,GR,1.32
N28E14C3,24.70328959,41.03306216,GR,2.44
N28E14C4,25.02469946,41.25842547,GR,5.52
N28E14C5,25.5736715,41.15211728,GR,4.45
N28E15C2,26.31987879,41.37424108,GR,1.45
N28W01C2,-1.22998086,41.11601352,ES,1.91
N28W01C5,-0.33827835,41.70122866,ES,1.49
N28W02C1,-2.587528,41.1496,ES,4.4
N28W02C2,-3.1826966,41.284318,ES,1.92
N28W02C3,-2.45078604,41.89985313,ES,1.54
N28W02C4,-2.78739356,41.36863089,ES,1.45
N28W02C5,-3.35846715,41.78176452,ES,1.21
N28W03C1,-4.80452905,40.57506912,ES,3.45
N28W03C2,-4.44117611,40.71399024,ES,4.57
N28W03C3,-4.07966014,41.10622302,ES,3.25
N28W03C4,-3.34742895,41.39616255,ES,1.66
N28W04C1,-7.051548387,40.78190412,PT,3.74
N28W04C2,-6.68546061,41.56977185,PT,3.66
N28W04C3,-6.248443642,41.71838332,PT,2.49
N28W04C4,-6.394532153,40.66533776,PT,3.17
N28W04C5,-7.13943702,41.63445902,PT,5.13
N28W05C1,-7.851833585,41.60013807,PT,4.69
N28W05C2,-8.231419815,41.57342581,PT,13.5
N28W05C3,-8.315550787,41.22082574,PT,9.74
N28W05C4,-7.641157281,40.9056789,PT,12.7
N29E01C1,1.59,42.96,FR,3.74
N29E01C2,0.52,43.06,FR,3.5
N29E02C1,3.67,43.85,FR,1.55
N29E02C2,2.17,43.27,FR,1.53
N29E02C4,2.57,42.41,FR,3.42
N29E04C1,6.23,43.49,FR,3.53
N29E05C3,8.92,42.17,FR,4.22
N29E05C4,9.24,42.23,FR,1.97
N29E05C5,9.22,42.43,FR,0.67
N29E07C1,13.141043,43.424799,IT,1.59
N29E07C2,11.803003,43.144529,IT,3.06
N29E07C3,11.852012,42.437738,IT,7.17
N29E07C4,12.798694,42.12019,IT,2.63
N29E07C5,11.731718,42.436627,IT,7.56
N29W01C1ES,-1.5464583,43.13444292,ES,0.5
N29W01C1FR,-0.27,43.17,FR,2.29
N29W01C2ES,-1.13290944,42.95842596,ES,3.21
N29W01C2FR,-1.23,43.17,FR,2.36
N29W01C3,-0.82587583,42.86679508,ES,3.13
N29W01C4,-0.41606107,42.80461771,ES,3.98
N29W03C2,-4.69410431,42.24980453,ES,2.09
N29W03C3,-4.05733794,42.43625212,ES,1.84
N29W03C5,-4.08700886,43.07979114,ES,3.83
N29W04C1,-6.56700552,43.12639379,ES,2.93
N29W04C3,-6.06997827,42.96765437,ES,3.66
N29W04C5,-7.09368489,42.78925743,ES,2.67
N29W05C2,-7.67282891,42.31520193,ES,6.46
N29W05C3,-7.9345091,42.83344375,ES,7.26
N29W05C4,-8.46894298,43.06778442,ES,3.62
N29W05C5,-7.82762928,43.29780093,ES,2.95
N30E01C1,1.37,44.68,FR,2.14
N30E01C2,0.62,44.67,FR,1.84
N30E01C3,0.26,43.79,FR,2.17
N30E01C4,0.97,43.49,FR,1.64
N30E01C5,0.84,43.81,FR,1.29
N30E02C1,3.75,44.82,FR,5.47
N30E02C2,2.030555556,44.95833333,FR,27.9
N30E02C3,2.81,44.31,FR,30.3
N30E02C4,3.6,44.32,FR,3.84
N30E02C5,3.38,44.71,FR,7.48
N30E03C1,5.26,44.69,FR,1.03
N30E03C2,5.24,44.38,FR,2.23
N30E03C3,4.24,44.5,FR,2.23
N30E03C4,5.23,43.87,FR,0.94
N30E03C5,4.05,44.15,FR,3.26
N30E04C2,6.65,44.67,FR,1.74
N30E04C3,6.4,44.17,FR,1.54
N30E04C4,6.92,44.27,FR,2.74
N30E04C5,6.99,43.95,FR,1.54
N30E05C1,8.82,44.83,IT,2.11
N30E05C2,8.68,44.76,IT,2.95
N30E05C3,8.16,44.04,IT,2.1
N30E05C4,9.54,44.25,IT,1.42
N30E06C1,10.845875,44.168386,IT,2.52
N30E06C2,10.11314,44.617018,IT,1.81
N30E06C3,10.357513,43.891476,IT,2.7
N30E06C4,11.274029,43.892853,IT,2.19
N30E06C5,10.127498,44.17581,IT,2.24
N30E09C2,15.4786,44.5331,HR,6.07
N30E09C3,16.0533,43.8188,HR,2.39
N30E09C4,16.6267,43.7313,HR,0.87
N30W01C1,0.1,45.03,FR,2.27
N30W01C2,-0.78,44.43,FR,0.41
N30W01C3,-0.24,43.58,FR,2.3
N30W01C4,-0.15,43.82,FR,1.64
N30W01C5,-0.09,44.26,FR,1.28
N31E01C1,1.43,46.11,FR,7.92
N31E01C2,0.25,46.36,FR,2.78
N31E01C3,0.6,45.66,FR,5.15
N31E01C4,1.64,45.17,FR,3.3
N31E01C5,2.44,45.12,FR,2.88
N31E02C1,3.71,45.41,FR,2.7
N31E02C2,2.62,45.82,FR,4.49
N31E02C3,2.75,45.33,FR,6.64
N31E02C4,3.94,44.95,FR,5.94
N31E02C5,3.65,46.23,FR,6.85
N31E03C1,5.51,46.28,FR,1.13
N31E03C2,5.16,46.22,FR,1.88
N31E03C3,4.4,44.94,FR,6.22
N31E03C4,5.3,45.55,FR,1.49
N31E03C5,5.32,46.59,FR,2.86
N31E04C2,6.64,45.92,FR,2.56
N31E04C3,6.44,45.37,FR,3.4
N31E05C1,9.77,46.31,IT,3.03
N31E05C2,8.19,46.24,IT,4.18
N31E05C3,7.96,45.58,IT,2.68
N31E05C4,9.81,45.81,IT,2.98
N31E05C5,9.26,45.89,IT,2.14
N31E06C1,11.42,46.21,IT,2.92
N31E06C2,10.66,46.17,IT,3.39
N31E06C3,10.25,45.7,IT,11.3
N31E06C4,11.33,45.55,IT,2.66
N31E07C1,13.32,46.45,IT,4.97
N31E07C2,12.23,46.37,IT,5.7
N31E07C3,12.03,45.65,IT,2.07
N31E07C5,12.51,46.3,IT,6.49
N31E08C1,14.88603611,45.85183611,SL,4.54
N31E08C2,14.701725,45.76528889,SL,4.46
N31E08C3,14.25856667,45.564325,SL,4.97
N31E08C4,15.28550556,45.63362778,SL,4.03
N31E08C5,14.83333333,45.46281389,SL,6.22
N31E09C1,17.3914,46.301,HR,2.62
N31E09C2,16.3158,46.4005,HR,3
N31E09C3,16.348,45.9503,HR,2.79
N31E09C4,17.8167,45.3425,HR,2.5
N31E09C5,16.8239,45.6728,HR,3.02
N31E10C1,18.6128,45.8039,HR,2.38
N31E10C2,17.948,46.0525,HR,2.5
N31E10C3,18.4814,45.3136,HR,2.85
N31E10C4,19.2919,45.2231,HR,2.52
N31E10C5,18.1014,46.0752,HR,2.96
N31W01C1,-0.48,45.93,FR,0.2
N31W01C2,-1.2,46.54,FR,2.42
N31W01C3,-0.73,45.66,FR,1.14
N31W01C4,-0.36,45.37,FR,1.36
N31W01C5,-0.34,46.38,FR,2.36
N32E01C1,2.44,47.36,FR,2.89
N32E01C2,1.11,47.83,FR,1.94
N32E01C3,1.23,47.14,FR,1.27
N32E01C4,1.79,46.65,FR,1.98
N32E01C5,0.76,47.86,FR,1.99
N32E02C1,4.01,47.47,FR,6.9
N32E02C2,3.1,47.82,FR,2.9
N32E02C3,2.83,46.49,FR,3.89
N32E02C4,3.54,46.87,FR,4.29
N32E02C5,4.15,46.7,FR,5.62
N32E03C1,5.66,47.83,FR,3.34
N32E03C2,4.33,47.51,FR,3.37
N32E03C3,4.56,46.32,FR,7.35
N32E03C4,7.02,47.14,FR,3.67
N32E03C5,6,47,FR,3.97
N32E04C1,7.94,47.84,CH,2.91
N32E04C2FR,5,47,FR,3.88
N32E04C3,6.19,46.58,CH,19.7
N32E04C4,7.443,47.343,CH,2.53
N32E04C5,6.7,46.666,CH,1.68
N32E05C1,9.7638,47.8138,CH,2.21
N32E05C2,8.425,47.8916,CH,3.85
N32E05C3,8.493,46.5902,CH,5.2
N32E05C4,9.9097,46.8638,CH,1.57
N32E05C5,9.9375,46.5722,CH,3.3
N32E06C1,11.55722,47.725,AT,4.21
N32E06C3,11.89278,47.22333,AT,6.7
N32E06C5,10.24417,47.12139,AT,2.03
N32E07C3,12.60833,46.9194,AT,3.34
N32E07C4,13.37222,46.58694,AT,3.39
N32E07C5,12.78722,47.4275,AT,2.88
N32E08C1,15.89722,47.4425,AT,2.24
N32E08C3,15.30889,46.70389,AT,3.42
N32E08C4,15.67306,47.10861,AT,1.79
N32E08C5,14.38778,46.98083,AT,2.27
N32E09C1,17.68442931,47.31449844,HU,2.18
N32E09C2,16.75193703,47.36064978,HU,1.34
N32E09C3,16.72118964,46.71864053,HU,2.6
N32E09C4,17.90780575,46.59755644,HU,2.55
N32E09C5,16.49826836,46.83330714,HU,2.13
N32E10C1,19.5870585,47.91150608,HU,2.23
N32E10C2,18.76053531,47.71429444,HU,0.89
N32E10C3,17.81503639,47.10963214,HU,2.5
N32E10C4,19.64774792,46.82892972,HU,0.98
N32E10C5,19.48278358,47.08933525,HU,0.7
N32E11C1,21.90631161,47.54874981,HU,0.81
N32E11C2,20.52406156,47.97816894,HU,2.99
N32E11C3,21.31540981,46.62806836,HU,2.05
N32E11C5,21.591981,46.86959656,HU,2.29
N32W01C2,-1.61,47.63,FR,4.01
N32W01C3,-1.74,46.58,FR,2.46
N32W01C4,-0.17,46.78,FR,2.73
N32W01C5,-1.27,47.14,FR,1.84
N32W02C1,-2.99,47.73,FR,6.28
N32W02C2,-3.44,48.03,FR,3.58
N32W02C5,-2.3,47.6,FR,3.75
N33E01C1,0.52,48.98,FR,2.56
N33E01C2,0.27,49.12,FR,2.48
N33E01C3,0.64,48.22,FR,1.75
N33E01C4,1.68,48.53,FR,0.46
N33E01C5,1.13,48.76,FR,2.37
N33E02C1,4.13,48.85,FR,0.65
N33E02C2,1.99,49.53,FR,2.12
N33E02C3,2.34,48.16,FR,0.52
N33E02C4,3.11,48.82,FR,2.31
N33E02C5,4.36,48.51,FR,0.37
N33E03C1,6.49,48.8,FR,1.92
N33E03C2,4.72,48.73,FR,2.39
N33E03C3,4.95,48.41,FR,1.37
N33E03C4,5.63,48.39,FR,1.9
N33E03C5,4.4,48.11,FR,1.54
N33E04C1DE,8.03,49.272,DE,1.96
N33E04C1FR,7.51,48.86,FR,2.12
N33E04C2,6.52,49.08,FR,2.19
N33E04C3,6.37,48.47,FR,3.64
N33E04C4,7.21,48.47,FR,2.38
N33E04C5,7.02,48.69,FR,2.36
N33E05C1,8.265,48.73,DE,4.58
N33E05C2,8.758,48.177,DE,3.56
N33E05C3,10.0705,48.1075,DE,1.81
N33E05C4,9.771,49.054,DE,3.23
N33E05C5,8.964,49.283,DE,3.86
N33E06C1,10.435,48.956,DE,3.61
N33E06C2,10.599,48.469,DE,1.43
N33E06C3,11.899,48.192,DE,1.99
N33E06C4,12.156,48.728,DE,2.84
N33E06C5,11.617,48.981,DE,2.96
N33E07C1,12.771,48.368,DE,2.23
N33E07C2,13.728,48.573,DE,3.21
N33E07C4,13.086,49.159,DE,4
N33E07C5,12.618,48.975,DE,3.66
N33E08C1,16.18333,48.94056,AT,2.37
N33E08C2,15.72056,49.33528,AT,5.17
N33E08C3,15.24583,48.89417,AT,3.59
N33E08C4,15.95028,48.61361,AT,1.89
N33E08C5,14.72667,48.02139,AT,1.96
N33E09C1,18.133508,48.922218,SK,4.1
N33E09C2,18.771024,49.457682,SK,2.49
N33E09C3,18.304191,48.15914,SK,2.21
N33E09C4,18.005185,48.418132,SK,2.48
N33E09C5,16.960603,48.497228,SK,0.698
N33E10C1,20.492722,49.112169,SK,2.38
N33E10C2,18.917466,48.231582,SK,2.74
N33E10C3,19.283563,48.964188,SK,3.76
N33E10C4,20.056784,48.292364,SK,2.2
N33E10C5,19.590554,48.778647,SK,4.01
N33E11C1,22.237022,49.011375,SK,2.76
N33E11C2,20.808784,48.78459,SK,3.66
N33E11C3,21.442569,48.653722,SK,2.14
N33E11C4,22.042488,48.487406,SK,3.25
N33E11C5,21.36461,49.307212,SK,2.42
N33W01C1,-0.7,48.57,FR,3.36
N33W01C2,-0.88,48.95,FR,2.5
N33W01C3,-1.46,48.45,FR,2.69
N33W01C5,-1.86,48.1,FR,2.3
N33W02C2,-3.92,48.59,FR,2.97
N33W02C3,-3.88,48.19,FR,2.24
N33W02C4,-2.46,47.95,FR,2.9
N33W02C5,-2.25,48.37,FR,3.12
N34E01C1,1.64,50.81,FR,1.1
N34E01C2,1.47,49.7,FR,2.67
N34E01C4,2.13,50.04,FR,2.72
N34E01C5,0.64,49.83,FR,2.16
N34E02C1,4.1345,50.3665,BE,2.37
N34E02C2,2.34,50.65,FR,2.7
N34E02C3,2.72,50.32,FR,2.35
N34E02C4,3.83,49.78,FR,2.03
N34E02C5,4.17,49.92,FR,4.66
N34E03C1,5.7137,50.5909,BE,3.31
N34E03C2,5.1049,50.6974,BE,2.45
N34E03C3,4.4392,50.116,BE,3.13
N34E03C4,6.3175,50.1552,BE,2.46
N34E03C5,4.85,49.66,FR,1.98
N34E04C1,6.7958,50.8237,DE,2.75
N34E04C2,7.1721,50.2907,DE,2.62
N34E04C3,6.614,49.6145,DE,2.82
N34E04C4,8.372,50.121,DE,3.05
N34E04C5,7.927,49.659,DE,4.53
N34E05C1,8.58,50.47,DE,2.91
N34E05C2,9.5648,50.6373,DE,2.62
N34E05C3,10.4426,50.3824,DE,3.16
N34E05C4,10.249,49.811,DE,0.75
N34E05C5,10.382,50.7428,DE,2.07
N34E05C6,9.463,50.083,DE,1.61
N34E06C1,11.3658,50.47,DE,3.58
N34E06C2,11.811,49.509,DE,2.27
N34E06C3,10.7791,49.5512,DE,3.27
N34E06C4,11.3701,50.8575,DE,2.66
N34E06C5,12.2488,50.3502,DE,3.08
N34E07C1CZ,13.59,50.61,CZ,3.39
N34E07C1DE,13.5595,50.7332,DE,3.46
N34E07C2,14.74,50.74,CZ,1.6
N34E07C3,13.2,50.1,CZ,2.65
N34E07C4,13.1,49.63,CZ,3.3
N34E07C5,14.6,49.81,CZ,1.79
N34E08C1,15.41,50.4,CZ,2.72
N34E08C2,15.82,50.64,CZ,2.81
N34E08C3,16.49,50.1,CZ,2.11
N34E08C4,15.75,49.75,CZ,3.71
N34E08C5,16.75,49.9,CZ,2.56
N34E09C1,19.102582,50.652579,PL,1.82
N34E09C2,17.452098,50.633151,PL,1.64
N34E09C3,17.906532,50.016144,PL,2.59
N34E09C4,18.972843,49.715462,PL,3.05
N34E09C5,18.154484,50.99929,PL,0.35
N34E10C1,20.879527,50.691813,PL,1.12
N34E10C2,19.76535,50.584768,PL,0.72
N34E10C3,20.032672,49.885127,PL,2.94
N34E10C4,20.512654,49.600263,PL,2.36
N34E10C5,20.379532,50.812819,PL,0.45
N34E11C1,23.291259,50.555321,PL,2.03
N34E11C2,21.923506,50.62334,PL,0.37
N34E11C3,21.861107,49.748379,PL,2
N34E11C4,22.734416,50.067033,PL,1.15
N34E11C5,22.974844,50.389812,PL,0.45
N34W02C1,-2.92,50.8,UK,2.56
N34W02C2,-4.08,50.93,UK,2.58
N34W02C3,-3.8,50.47,UK,2.89
N34W03C1,-4.32,50.78,UK,2.77
N34W03C2,-4.91,50.26,UK,3.17
N35E01C1,1.44,52.49,UK,0.68
N35E01C2,1.01,51.95,UK,1.56
N35E01C3,0.43,51.77,UK,1.85
N35E01C4,1.24,51.27,UK,1.9
N35E01C5,0.85,51.67,UK,1.99
N35E03C2,5.454434,52.163242,NL,0.81
N35E03C3,4.931817,51.888242,NL,6.45
N35E03C4,5.933664,51.253247,NL,1.11
N35E03C5,4.559267,52.043508,NL,1.52
N35E04C1,8.7915,52.2373,DE,2.88
N35E04C2,7.8703,52.2442,DE,2.62
N35E04C3,7.7791,51.7732,DE,1.58
N35E04C4,7.1496,51.0227,DE,3.12
N35E04C5,8.14,51.282,DE,2.41
N35E05C1,10.8319,52.1524,DE,2.26
N35E05C2,10.1365,51.6798,DE,2.68
N35E05C3,9.7403,52.2347,DE,3.65
N35E05C4,9.654,51.226,DE,2.3
N35E05C5,10.3324,51.2607,DE,2.43
N35E06C1,11.6842,52.4117,DE,0.4
N35E06C2,12.7277,52.5419,DE,0.29
N35E06C3,12.4071,51.8163,DE,3.29
N35E06C4,11.1144,51.4988,DE,2.45
N35E06C5,12.8836,51.2072,DE,2.6
N35E07C1,14.2593,52.4292,DE,1.05
N35E07C2,13.4763,52.1347,DE,0.65
N35E07C3,14.8374,51.243,DE,1.21
N35E08C1,16.467954,52.421685,PL,0.61
N35E08C2,16.098366,52.262302,PL,0.54
N35E08C3,15.967291,51.445268,PL,1.06
N35E08C4,17.501223,51.509924,PL,0.83
N35E08C5,16.183369,50.994357,PL,2.09
N35E09C1,19.518461,52.047236,PL,1.32
N35E09C2,17.917077,51.917672,PL,0.28
N35E09C3,19.410025,51.177893,PL,0.35
N35E09C4,19.885135,51.250487,PL,1.44
N35E09C5,19.113421,51.72558,PL,1.08
N35E10C1,21.590398,52.056302,PL,1.27
N35E10C2,20.318814,51.70297,PL,0.64
N35E10C3,20.33483,51.366612,PL,1.27
N35E10C4,21.357954,51.301026,PL,1.84
N35E10C5,20.758297,51.337088,PL,0.65
N35E11C1,23.576726,51.964247,PL,0.56
N35E11C2,22.47383,52.385429,PL,1.5
N35E11C3,22.840129,51.744015,PL,1.38
N35E11C4,23.542539,51.485041,PL,0.43
N35E11C5,22.369032,51.177191,PL,0.81
N35W01C1,-1.08,52.16,UK,1.97
N35W01C2,-1.54,52.48,UK,1.99
N35W01C3,-2.13,51.62,UK,1.89
N35W01C4,-1.1,51.37,UK,1.36
N35W01C5,-0.44,52.18,UK,1.86
N35W02C1,-2.35,52.35,UK,2.13
N35W02C2,-3.37,52.32,UK,2.54
N35W02C3,-3.49,51.89,UK,1.58
N35W02C4,-2.36,51.42,UK,2
N35W02C5,-3.86,52.43,UK,2.72
N36E03C1,6.526147,53.176517,NL,2.06
N36E03C2,6.44991,53.360982,NL,1.7
N36E03C4,6.399485,52.844694,NL,0.6
N36E04C1,8.9233,53.7079,DE,2.33
N36E04C2,7.9224,53.217,DE,0.66
N36E04C4,8.6121,52.9162,DE,0.99
N36E04C5,7.2674,52.8641,DE,0.54
N36E05C1,10.4138,52.6133,DE,0.57
N36E05C2,10.1901,53.2136,DE,1.1
N36E05C3,9.5165,52.8362,DE,0.99
N36E05C4,9.7713,54.0117,DE,1.08
N36E05C5,10.7919,53.4816,DE,0.64
N36E05C6,10.4085,53.4885,DE,1.21
N36E06C1,11.5685,53.768,DE,0.7
N36E06C2,13.2441,53.9076,DE,1.9
N36E06C3,12.9503,53.471,DE,0.84
N36E06C4,11.6438,53.0714,DE,0.54
N36E06C5,13.2033,52.7937,DE,0.61
N36E07C1DE,13.9038,53.3926,DE,0.46
N36E07C1PL,15.509142,53.551029,PL,1.11
N36E07C2DE,13.739,52.5806,DE,1.04
N36E07C2PL,14.918622,53.541483,PL,1.11
N36E07C3,14.725723,52.770494,PL,0.39
N36E07C4,15.690349,53.208464,PL,0.56
N36E07C5,15.232315,53.114371,PL,1.51
N36E08C1,17.671408,53.740521,PL,1.34
N36E08C2,16.587885,53.734468,PL,1.97
N36E08C3,16.856991,53.274832,PL,0.5
N36E08C4,17.675389,52.906553,PL,1.34
N36E08C5,17.022813,52.805259,PL,1.23
N36E09C1,20.429333,53.869836,PL,1.38
N36E09C2,18.974359,53.527398,PL,1.58
N36E09C3,19.18599,53.102267,PL,1.4
N36E09C4,20.087664,52.971029,PL,0.54
N36E09C5,19.717229,52.962891,PL,0.52
N36E10C1,22.712989,53.522906,PL,0.57
N36E10C2,21.503572,53.675314,PL,1.03
N36E10C3,20.943449,53.053644,PL,0.51
N36E10C4,22.743781,52.792568,PL,1.66
N36E10C5,22.623979,53.063171,PL,1.28
N36W01C1,-0.67,53.46,UK,1.91
N36W01C2,-1.26,53.46,UK,2.37
N36W01C3,-1.64,52.68,UK,2.25
N36W01C4,-1.04,52.77,UK,2.4
N36W01C5,-1.62,53.92,UK,3.53
N36W02C1,-2.56,53.99,UK,0.05
N36W02C2,-4.51,53.33,UK,1.72
N36W02C3,-3.89,52.74,UK,1.93
N36W02C4,-2.83,52.56,UK,1.79
N36W02C5,-2.31,53.23,UK,0.59
N36W04C1,-7.14,53.565,IE,2.26
N36W04C2,-8.742,53.686,IE,2.07
N36W04C3,-8.632,53.238,IE,1.81
N36W04C4,-7.058,52.679,IE,2.9
N36W04C5,-7.769,53.068,IE,2.16
N37E05C1,9.2025,54.2422,DE,1.2
N37E05C2,8.8148,54.8179,DE,1.46
N37E05C3,9.6018,54.6477,DE,1.45
N37E05C4,10.7918,54.2481,DE,1.96
N37E06C1,13.0714,54.2384,DE,0.72
N37E08C1,17.985106,54.461917,PL,0.19
N37E10C1,22.938,55.098,LT,1.5
N37E10C2,21.616,55.247,LT,1.29
N37E10C3,23.228,54.615,LT,1.97
N37E10C4,23.08,54.1,LT,0.8
N37E10C5,22.42,54.18,LT,0.96
N37E11C1,25.485,55.286,LT,0.68
N37E11C2,23.784,55.187,LT,1.58
N37E11C3,24.331,54.213,LT,1.26
N37E11C4,24.869,54.378,LT,0.73
N37E11C5,24.608,54.802,LT,1.49
N37W01C1,-1.51,54.79,UK,1.25
N37W01C2,-2.22,55.25,UK,1.59
N37W01C3,-1.53,54.36,UK,5.52
N37W01C4,-0.54,54.39,UK,2.22
N37W01C5,-1.43,54.45,UK,2.75
N37W02C1,-2.9,55.05,UK,1.58
N37W02C2,-3.96,55.36,UK,2.74
N37W02C3,-4.24,54.88,UK,2.3
N37W02C4,-2.55,54.67,UK,1.99
N37W02C5,-2.94,54.44,UK,1.74
N37W03C1,-6.07,54.95,UK,0.37
N37W03C2,-6.95,54.98,UK,1.35
N37W03C3,-6.565,54.03,IE,1.92
N37W03C4,-6.1,54.18,UK,17.6
N37W03C5,-6.99,54.51,UK,1.49
N37W04C1,-7.918,55.102,IE,1.93
N37W04C2,-8.225,55.125,IE,1.15
N37W04C3,-8.159,54.242,IE,6.13
N37W04C4,-7.346,54.285,IE,2.02
N37W04C5,-8.284,54.761,IE,2.53
N38E04C1,8.37,56.48,DK,0.62
N38E04C2,8.91,55.64,DK,0.54
N38E04C3,9.36,55.95,DK,0.28
N38E04C4,9.54,56.4,DK,1.14
N38E04C5,9.72,55.93,DK,1.35
N38E06C1,14.84853,56.73578,SE,2.14
N38E06C2,13.52667,56.50102,SE,1.1
N38E06C3,13.13284,56.16409,SE,1.27
N38E07C1,16.22109,56.85651,SE,2.11
N38E07C2,15.132,56.34918,SE,1.97
N38E07C5,15.95234,56.41862,SE,1.95
N38E10C1,24.203,56.464,LV,1.7
N38E10C2,23.362,56.325,LT,1.65
N38E10C3,22.325,55.934,LT,1.18
N38E10C4,23.053,55.608,LT,1.32
N38E10C5,24.352,55.824,LT,1.19
N38E11C1,26.65833333,56.63555556,LV,2.54
N38E11C2,26.49416667,57.07666667,LV,1.52
N38E11C3,24.792,56.147,LT,0.91
N38E11C4,26,56.07416667,LV,1.24
N38E11C5,26.55416667,56.13583333,LV,2.91
N38W02C1,-3.44,56.44,UK,1.66
N38W02C2,-4.27,56.89,UK,2
N38W02C3,-4.67,55.86,UK,1.03
N38W02C4,-3.11,55.85,UK,1.83
N38W02C5,-4.71,56.1,UK,2.11
N38W03C1,-5.02,56.85,UK,1.83
N38W03C2,-5.03,56.56,UK,2.44
N38W03C3,-5.15,56.09,UK,2.02
N39E06C1,15.27618,57.80538,SE,1.78
N39E06C2,13.9361,58.06192,SE,2.11
N39E06C3,12.65904,57.64177,SE,2.01
N39E06C4,14.2071,57.09274,SE,1.9
N39E07C1,16.404,58.3373,SE,3.67
N39E07C2,15.75085,57.60005,SE,2.7
N39E07C3,15.71993,57.40934,SE,3.36
N39E11C1,27.2113,58.2237,EE,2.09
N39E11C2,26.1967,58.238,EE,1.41
N39E11C3,25.80694444,57.79888889,LV,1.29
N39E11C4,26.425,57.42555556,LV,2.07
N39E11C5,25.4125,57.11,LV,2.13
N39W02C1,-2.85,57.52,UK,1.84
N39W02C2,-3.76,58.15,UK,2.19
N39W02C3,-4.55,57.47,UK,2.72
N39W02C4,-3.19,57.59,UK,0.93
N39W02C5,-3.63,57.55,UK,1.04
N39W03C1,-5.3,57.62,UK,1.75
N39W03C2,-5.41,57.32,UK,2.03
N39W03C3,-6.29,57.4,UK,0.23
N40E03C1,7.6193032,59.7407431,NO,12.7
N40E03C2,6.4219501,59.6904722,NO,1.52
N40E03C3,6.3579829,59.1482825,NO,1.53
N40E03C4,7.0462035,58.6711848,NO,2.75
N40E03C5,6.0940474,58.65022,NO,1.02
N40E04C1,9.7145989,59.9726853,NO,1.57
N40E04C2,8.2936661,59.646254,NO,2.31
N40E04C3,8.5450343,58.7582453,NO,2.19
N40E04C4,10.0109834,59.2098352,NO,4.23
N40E04C5,9.1507353,59.5579246,NO,2.93
N40E05C1,12.21315,59.83368,SE,2.36
N40E05C2,11.6904966,59.4753226,NO,2.98
N40E05C4,13.5083,58.92373,SE,1.72
N40E06C1,15.22855,59.79958,SE,2.91
N40E06C4,15.2913,58.74269,SE,2.65
N40E06C5,14.71457,59.23755,SE,2.13
N40E07C2,16.48815,59.87975,SE,2.42
N40E10C1,25.918,59.5165,EE,3.99
N40E10C2,24.2972,59.3412,EE,1.47
N40E10C3,24.0412,58.685,EE,1.47
N40E10C4,25.3108,58.6408,EE,0.78
N40E10C5,24.8708,58.8562,EE,1.5
N40E11C1,28.0083,59.3978,EE,4.04
N40E11C2,26.977,59.388,EE,2.38
N40E11C3,26.7922,58.6755,EE,2.19
N40E11C5,27.7612,59.0862,EE,1.63
N41E03C1,8.3694092,60.802442,NO,0.77
N41E03C2,6.4601033,60.9019044,NO,2.67
N41E03C3,5.7735438,60.4775426,NO,1.02
N41E03C4,7.9774455,60.4769745,NO,3.49
N41E03C5,7.4685601,60.3775883,NO,5.23
N41E04C1,9.7639088,61.3359319,NO,0.72
N41E04C2,9.0869104,61.1342683,NO,3.84
N41E04C3,8.6990034,60.2379026,NO,2.02
N41E04C4,10.1660238,60.5375741,NO,1.57
N41E04C5,8.7516864,60.7911236,NO,2.92
N41E05C1,13.68394,61.07403,SE,0.96
N41E05C2,11.2098407,60.9015958,NO,1.69
N41E05C3,11.5147793,60.3941202,NO,1.99
N41E05C4,12.82723,59.98298,SE,1.8
N41E05C5,12.25385,60.42603,NO,1.46
N41E06C1,16.30578,61.01277,SE,3.6
N41E06C2,15.05286,60.98548,SE,2.23
N41E06C3,14.65479,60.16257,SE,6.13
N41E06C4,16.33453,60.31019,SE,2.21
N41E09C1,24.82,61.43,FI,4.06
N41E09C2,21.94,60.82,FI,2.03
N41E09C3,22.71,60.82,FI,1.43
N41E09C4,23.55,60.76,FI,1.83
N41E09C5,23.48,60.39,FI,2.53
N41E10C1,27.28,61.33,FI,2.03
N41E10C2,25.11,61.49,FI,2.24
N41E10C3,25.05,60.33,FI,1.44
N41E10C4,26.84,60.77,FI,5.04
N41E10C5,27.37,60.76,FI,1.69
N42E03C1,8.2042836,62.2630662,NO,1.21
N42E03C2,6.8615633,62.2659375,NO,1.19
N42E03C3,6.1566609,61.9550748,NO,1.42
N42E03C4,7.5013936,62.0283272,NO,1.55
N42E03C5,6.3214638,62.0769353,NO,2.11
N42E04C1,10.010757,62.3227083,NO,0.99
N42E04C2,9.6995622,62.8802228,NO,1.14
N42E04C3,9.0927607,61.8604922,NO,1.66
N42E04C4,10.8491289,61.8319294,NO,1.67
N42E04C5,11.0753377,62.9198785,NO,1.4
N42E05C2,11.8916573,62.9454461,NO,1.76
N42E05C3,12.56107,61.94428,SE,1.75
N42E05C4,13.68911,61.59173,SE,1.86
N42E05C5,11.7492995,61.7234482,NO,0.97
N42E06C3,15.26491,61.61495,SE,1.73
N42E06C4,16.16359,61.48804,SE,2.2
N42E06C5,16.59618,62.36266,SE,2.54
N42E08C1,21.83,62.58,FI,3.14
N42E08C2,21.84,62.8,FI,3.17
N42E08C3,21.88,62.01,FI,1.85
N42E08C4,22.3,62.19,FI,2.33
N42E08C5,22.21,62.55,FI,2.2
N42E09C1,25.19,62.35,FI,1.42
N42E09C2,24.29,62.28,FI,1.4
N42E09C3,23.63,62.11,FI,1.73
N42E09C4,24.67,61.9,FI,2.75
N42E09C5,23.35,61.82,FI,2.85
N42E10C1,28.3,62,FI,1.38
N42E10C2,26.46,62.98,FI,1.14
N42E10C3,27.37,61.68,FI,1.96
N42E10C4,29.16,61.78,FI,1.63
N42E10C5,26.52,62.36,FI,1.23
N42E11C1,31.22,62.69,FI,0.74
N42E11C2,29.36,62.81,FI,1.3
N42E11C3,30.05,62.09,FI,2.78
N42E11C4,30.21,62.2,FI,1.29
N42E11C5,30.59,62.55,FI,1.21
N43E04C1,11.8607033,64.0306938,NO,2.35
N43E04C2,11.0577935,64.2393553,NO,1.38
N43E04C3,10.5722081,63.2762495,NO,1.33
N43E04C4,11.9476414,63.6876747,NO,0.42
N43E04C5,11.3655835,63.3769772,NO,2.3
N43E05C1,14.52935,63.70203,SE,3.52
N43E05C2,12.4411891,64.4136641,NO,1.73
N43E05C5,14.42509,63.43395,SE,2.85
N43E06C4,17.67108,63.25634,SE,2.1
N43E06C5,15.95361,63.19464,SE,1.99
N43E07C1,20.85626,64.15021,SE,2.19
N43E07C2,18.51028,64.34126,SE,2.07
N43E07C5,18.52474,63.64988,SE,5.13
N43E09C1,26.25,63.95,FI,1.12
N43E09C2,24.82,64.42,FI,1.58
N43E09C3,24.14,63.38,FI,1.12
N43E09C4,26.89,63.52,FI,1.07
N43E09C5,24.84,63.14,FI,1.45
N43E10C1,29.91,64.47,FI,0.63
N43E10C2,27.18,64.14,FI,0.75
N43E10C3,27.56,63.7,FI,0.56
N43E10C4,29.65,63.07,FI,0.91
N43E10C5,27.41,64.07,FI,1.14
N44E05C2,13.1545716,65.6819829,NO,1.77
N44E05C3,13.6194577,64.912469,NO,1.85
N44E05C5,13.0047557,65.317312,NO,2.19
N44E06C1,18.31924,65.88931,SE,2.4
N44E06C4,17.73129,65.07265,SE,2.13
N44E06C5,17.28636,65.54615,SE,2.74
N44E07C2,20.93973,65.47124,SE,2.72
N44E07C3,19.26561,65.05617,SE,1.65
N44E07C5,19.66319,65.42798,SE,2.25
N44E09C1,27.02,65.77,FI,0.96
N44E09C2,26.42,65.43,FI,0.53
N44E09C3,25.49,64.64,FI,0.45
N44E09C4,27.95,65.61,FI,0.74
N44E09C5,27.69,65.42,FI,0.8
N45E05C2,14.7592201,66.8958654,NO,1.32
N45E05C3,14.336029,66.4588563,NO,1.54
N45E05C5,15.3371448,66.5604644,NO,4.74
N45E06C1,19.74971,67.09498,SE,3.89
N45E06C4,20.12522,66.03973,SE,3.04
N45E06C5,19.47665,66.56219,SE,3.17
N45E07C1,22.94554,66.79893,SE,3.56
N45E07C3,20.16717,66.69168,SE,3.82
N45E07C5,22.64705,66.47981,SE,2.54
N45E08C1,26.57,67.2,FI,1.38
N45E08C2,23.86,67.05,FI,1.4
N45E08C3,25,66.3,FI,4.96
N45E08C4,25.92,66.48,FI,1.15
N45E08C5,24.27,67.39,FI,1.26
N45E09C1,28.92,66.86,FI,0.56
N45E09C2,27.86,66.96,FI,0.99
N45E09C3,27.99,66.61,FI,1.34
N45E09C4,29.09,66.56,FI,0.87
N45E09C5,28.05,66.05,FI,1.6
N46E06C1,19.6718846,68.9627659,NO,1.46
N46E06C2,18.6827594,68.6947606,NO,1.86
N46E06C4,19.88217,67.99472,SE,2.45
N46E06C5,21.26745,68.34263,SE,1.26
N46E07C1,24.72,68.5,FI,1.65
N46E07C2,22.98,68.33,FI,0.71
N46E07C4,24.61,67.64,FI,1.21
N46E07C5,21.95,68.57,FI,2.19
N46E08C1,26.7,68.8,FI,0.74
N46E08C2,26.47,68.36,FI,1.59
N46E08C3,25.51,67.63,FI,1.25
N46E08C4,27.18,68.12,FI,0.94
N46E08C5,26.6,67.85,FI,1.13
N47E07C1,24.9702093,69.9712527,NO,0.69
N47E07C2,23.1474376,69.8741612,NO,1.39
N47E07C3,23.6180384,69.3948857,NO,1.1
N47E07C4,25.6608854,69.4505992,NO,0.82
N47E07C5,23.3183533,69.1335422,NO,0.94
N47E08C1,29.3335163,70.1562164,NO,1.31
N47E08C2,27.5044206,70.0684685,NO,0.93
N47E08C3,27.86,69.22,FI,0.93
N47E08C5,26.4278484,69.945146,NO,0.48